"sa_name","source","status","Phone"
"Jagadeesh Kumasi","symb","Active",9000000011
"Subramani M","symb","Active",9000000012
"Steephan S","symb","Active",9000000013
"Yogesh S M","symb","Active",9000000014
"Vinay Kumar","symb","Active",9000000015
"Praveen S","symb","Active",9000000016
"Akhil H V","symb","Active",9000000017
"Lokesh J N","symb","Active",9000000018
